…
    ## Warning: 1 parsing failure.
    ##   row col   expected    actual                              file
    ## 16036  -- 11 columns 2 columns '/cloud/project/data/vgsales.csv'

``` r
vgsales_top_100 <- vgsales %>%
  head(100)
vgsales_random_1000 <- sample_n(vgsales, 1000)

vgsales
```

    ## # A tibble: 16,036 x 11
    ##     Rank Name  Platform Year  Genre Publisher NA_Sales EU_Sales JP_Sales
    ##    <dbl> <chr> <chr>    <chr> <chr> <chr>        <dbl>    <dbl>    <dbl>
    ##  1     1 Wii … Wii      2006  Spor… Nintendo      41.5    29.0      3.77
    ##  2     2 Supe… NES      1985  Plat… Nintendo      29.1     3.58     6.81
    ##  3     3 Mari… Wii      2008  Raci… Nintendo      15.8    12.9      3.79
    ##  4     4 Wii … Wii      2009  Spor… Nintendo      15.8    11.0      3.28
    ##  5     5 Poke… GB       1996  Role… Nintendo      11.3     8.89    10.2 
    ##  6     6 Tetr… GB       1989  Puzz… Nintendo      23.2     2.26     4.22
    ##  7     7 New … DS       2006  Plat… Nintendo      11.4     9.23     6.5 
    ##  8     8 Wii … Wii      2006  Misc  Nintendo      14.0     9.2      2.93
    ##  9     9 New … Wii      2009  Plat… Nintendo      14.6     7.06     4.7 
    ## 10    10 Duck… NES      1984  Shoo… Nintendo      26.9     0.63     0.28
    ## # … with 16,026 more rows, and 2 more variables: Other_Sales <dbl>,
    ## #   Global_Sales <dbl>

``` r
vgsales_top_100
```

    ## # A tibble: 100 x 11
    ##     Rank Name  Platform Year  Genre Publisher NA_Sales EU_Sales JP_Sales
    ##    <dbl> <chr> <chr>    <chr> <chr> <chr>        <dbl>    <dbl>    <dbl>
    ##  1     1 Wii … Wii      2006  Spor… Nintendo      41.5    29.0      3.77
    ##  2     2 Supe… NES      1985  Plat… Nintendo      29.1     3.58     6.81
    ##  3     3 Mari… Wii      2008  Raci… Nintendo      15.8    12.9      3.79
    ##  4     4 Wii … Wii      2009  Spor… Nintendo      15.8    11.0      3.28
    ##  5     5 Poke… GB       1996  Role… Nintendo      11.3     8.89    10.2 
    ##  6     6 Tetr… GB       1989  Puzz… Nintendo      23.2     2.26     4.22
    ##  7     7 New … DS       2006  Plat… Nintendo      11.4     9.23     6.5 
    ##  8     8 Wii … Wii      2006  Misc  Nintendo      14.0     9.2      2.93
    ##  9     9 New … Wii      2009  Plat… Nintendo      14.6     7.06     4.7 
    ## 10    10 Duck… NES      1984  Shoo… Nintendo      26.9     0.63     0.28
    ## # … with 90 more rows, and 2 more variables: Other_Sales <dbl>,
    ## #   Global_Sales <dbl>

``` r
vgsales_random_1000
```

    ## # A tibble: 1,000 x 11
    ##     Rank Name  Platform Year  Genre Publisher NA_Sales EU_Sales JP_Sales
    ##    <dbl> <chr> <chr>    <chr> <chr> <chr>        <dbl>    <dbl>    <dbl>
    ##  1  9761 Body… PS3      2011  Shoo… Codemast…     0.05     0.06     0   
    ##  2  5821 LEGO… 3DS      2013  Adve… Warner B…     0.18     0.1      0   
    ##  3 14435 Alia… PSV      2015  Adve… dramatic…     0        0        0.03
    ##  4 15671 Free… GC       2003  Raci… Midway G…     0.01     0        0   
    ##  5 11934 Vamp… DS       2009  Adve… D3Publis…     0        0        0.07
    ##  6  3306 New … Wii      2008  Plat… Nintendo      0.24     0.17     0.14
    ##  7  1980 The … XB       2001  Raci… Electron…     0.78     0.26     0   
    ##  8 11886 Kido… PS2      2009  Stra… Namco Ba…     0        0        0.07
    ##  9  9302 Vamp… PS2      2001  Shoo… Sony Com…     0.07     0.05     0   
    ## 10 10842 Pac-… GC       2005  Plat… Namco Ba…     0.07     0.02     0   
    ## # … with 990 more rows, and 2 more variables: Other_Sales <dbl>,
    ## #   Global_Sales <dbl>
…
