…
Figure 3

Looking at the platforms that the video games are released on, XBOX 360,
Wii, and DS have the most games out of the top 100 video games. The
graph above shows that the top video games were published on a variety
of platforms, not just two or three.

    ## # A tibble: 31 x 2
    ##    Platform Sales
    ##    <chr>    <dbl>
    ##  1 PS2      1233.
    ##  2 X360      969.
    ##  3 PS3       949.
    ##  4 Wii       910.
    ##  5 DS        818.
    ##  6 PS        727.
    ##  7 GBA       313.
    ##  8 PSP       291.
    ##  9 PS4       278 
    ## 10 GB        254.
    ## # … with 21 more rows
…
